2020-03-06T19:39:24+00:00 CRITICAL Uncaught Error: Call to undefined function emove_action() in Y:\wamp\www\travel\wp-content\themes\wp-bootstrap-4\functions.php:205
Stack trace:
#0 Y:\wamp\www\travel\wp-settings.php(497): include()
#1 Y:\wamp\www\travel\wp-config.php(90): require_once('Y:\\wamp\\www\\tra...')
#2 Y:\wamp\www\travel\wp-load.php(37): require_once('Y:\\wamp\\www\\tra...')
#3 Y:\wamp\www\travel\wp-admin\admin.php(34): require_once('Y:\\wamp\\www\\tra...')
#4 Y:\wamp\www\travel\wp-admin\theme-editor.php(10): require_once('Y:\\wamp\\www\\tra...')
#5 {main}
  thrown in Y:\wamp\www\travel\wp-content\themes\wp-bootstrap-4\functions.php on line 205

